<svg width="25" height="24" viewBox="0 0 25 24" fill="none" xmlns="http://www.w3.org/2000/svg">
<g id="Frame">
<path id="Vector" fill-rule="evenodd" clip-rule="evenodd" d="M3.66992 5.89C3.66992 4.85 4.62592 4 5.83592 4C7.04492 4 8.00092 4.85 8.00092 5.89C8.00092 6.932 7.04492 7.781 5.83592 7.781C4.62592 7.78 3.66992 6.93 3.66992 5.89ZM17.0859 8.876C15.4819 8.876 14.5259 9.451 13.5139 10.711V9.232H9.85692V20H13.5419V14.165C13.5419 12.932 14.1889 11.726 15.6519 11.726C17.1139 11.726 17.9849 12.932 17.9849 14.137V20H21.6699V13.89C21.6699 9.644 18.7169 8.876 17.0859 8.876ZM3.99292 9.233H7.64992V20.001H3.99292V9.233Z" fill="white"/>
</g>
</svg>
