<svg width="519" height="60" viewBox="0 0 519 60" fill="none" xmlns="http://www.w3.org/2000/svg">
<path d="M29.8429 22.2546L52.8476 1.31779H59.5566V57.8287H44.6161V28.8213L29.8261 42.3057L14.9692 28.8882V57.812H0.0454102V1.31779H6.75444L29.8429 22.2546Z" fill="white"/>
<path d="M67.1694 57.8287L93.5705 1.31779H100.28L126.915 57.812H112.058L108.595 50.4265L82.0431 57.812H67.1862L67.1694 57.8287ZM87.8319 45.3301L102.772 37.9446L97.0338 25.5129L87.8319 45.3301Z" fill="white"/>
<path d="M156.328 42.9741H178.195V57.812H130.596L154.655 16.2225H132.018V1.31779H180.37L156.311 42.9741H156.328Z" fill="white"/>
<path d="M184.216 57.8287L210.617 1.31779H217.326L243.961 57.812H229.104L225.641 50.4265L199.541 57.812H184.233L184.216 57.8287ZM205.33 45.3301L219.819 37.9446L214.08 25.5129L205.33 45.3301Z" fill="white"/>
<path d="M246.521 1.25125H291.109V16.0056H276.101V57.8123H261.244V16.0056H246.538V1.25125H246.521Z" fill="white"/>
<path d="M301.349 1.31779H316.206V42.9073H336.567V57.8287H301.333V1.31779H301.349Z" fill="white"/>
<path d="M343.444 57.8291L363.973 14.2178L381.59 10.5083L403.19 57.8124H388.333L384.87 50.4268L358.318 57.8124H343.461L343.444 57.8291ZM364.107 45.3305L379.047 37.945L373.309 25.5133L364.107 45.3305Z" fill="white"/>
<path d="M452.278 57.8287L425.576 31.0771V57.8287H410.719V1.31779H416.759L443.544 27.9859V1.31779H458.401V57.8287H452.295H452.278Z" fill="white"/>
<path d="M475.131 0.733398H496.898V6.84901H482.091V15.6047H495.559V21.8038H482.091V34.5029H475.131V0.733398Z" fill="white"/>
<path d="M487.479 41.7879C487.479 31.8124 495.192 24.5104 504.879 24.5104C510.986 24.5104 515.369 26.6994 518.398 31.4114L513.077 35.1877C511.488 32.5977 508.744 30.7764 504.879 30.7764C498.772 30.7764 494.64 35.4885 494.64 41.8046C494.64 48.1207 498.772 52.933 504.879 52.933C509.246 52.933 511.689 50.8443 513.579 47.9703L519 51.6965C516.072 56.2581 511.387 59.1488 504.879 59.1488C495.192 59.1488 487.479 51.7967 487.479 41.8213V41.7879Z" fill="white"/>
<path d="M517.461 0.733398H509.43V11.6947H517.461V0.733398Z" fill="white"/>
<path d="M483.162 46.8511H475.131V57.8124H483.162V46.8511Z" fill="white"/>
<path d="M380.971 1.05051L364.057 1.28444L360.978 10.107L382.444 6.02988L380.971 1.05051Z" fill="white"/>
</svg>
