<svg width="86" height="87" viewBox="0 0 86 87" fill="none" xmlns="http://www.w3.org/2000/svg">
<g id="Frame" clip-path="url(#clip0_290_519)">
<path id="Vector" d="M43.0916 0.931091C66.5682 0.931091 85.7156 20.0785 85.7156 43.5551C85.7156 67.0318 66.5682 86.1792 43.0916 86.1792C19.6149 86.1792 0.467529 67.0318 0.467529 43.5551C0.467529 20.0785 19.6149 0.931091 43.0916 0.931091Z" fill="#FFED00"/>
<path id="Vector_2" d="M72.1659 72.6289C88.2229 56.5719 88.2229 30.5384 72.1659 14.4815C56.109 -1.57545 30.0755 -1.57545 14.0186 14.4815C-2.03839 30.5384 -2.03839 56.5719 14.0186 72.6289C30.0755 88.6858 56.109 88.6858 72.1659 72.6289Z" fill="#312783"/>
<path id="Vector_3" d="M82.6118 42.6797H75.2852C74.9879 41.7171 74.6621 40.7846 74.3122 39.8911C72.4216 35.0648 69.7667 31.2792 66.6854 29.3646L65.9901 28.9321L65.2948 29.3646C65.0531 29.5148 64.8158 29.68 64.5801 29.8527C64.089 28.1303 63.5094 26.4064 62.8322 24.684L71.4501 16.0661C78.1684 22.9947 82.3835 32.3604 82.6103 42.6797H82.6118Z" fill="#FFED00"/>
<path id="Vector_4" d="M43.0915 4.02563C53.6871 4.02563 63.3291 8.23173 70.4394 15.0582L61.8635 23.634C60.482 23.0499 59.105 22.5348 57.7325 22.0829L57.9292 19.5616L57.4487 19.2928C57.4712 19.7913 56.1843 19.1231 56.2069 18.3002C55.9606 18.2897 56.4651 17.5704 55.9741 17.5479L55.5146 16.7866L55.2683 16.7761L54.3283 15.7459L54.3403 15.4997C54.1046 15.2429 53.3132 15.5507 53.3252 15.3044C53.0789 15.2939 52.3296 15.5057 52.3176 15.7519L52.0713 15.7414L51.8251 15.7309L51.5653 16.5823C51.5548 16.8286 51.5353 16.9578 51.5232 17.204C51.7695 17.2145 51.8356 17.9038 52.0834 17.9143L52.0713 18.1606C52.2185 18.4294 52.8477 18.1846 53.1961 18.8768L53.6781 19.1456C53.6676 19.3919 53.7352 19.5181 53.9694 19.7748L54.2893 20.356L54.5355 20.3665L54.7788 20.7254L55.0251 20.7359C55.2488 21.2389 55.1647 22.6565 54.9079 22.8907L54.6572 23.164C54.4109 23.1535 53.3372 23.4418 53.3147 23.9344C53.561 23.9449 53.2321 25.4 54.0595 24.6567C54.0475 24.9029 54.95 25.3039 54.9395 25.5501L54.9785 26.2319C55.4515 27.1344 56.0417 27.6644 56.803 27.6494C57.0493 27.5383 57.3091 28.0008 57.3121 26.5788L57.4427 26.0712C57.2054 24.972 57.0883 24.2752 58.0629 25.409L58.3197 25.1747L58.5764 24.939L58.4788 23.8548C59.4534 24.2122 60.431 24.6011 61.4115 25.0306C62.1999 26.9602 62.8651 28.8913 63.4057 30.8224C61.1292 32.9277 59.1606 36.0826 57.668 39.8908C55.8269 44.5864 54.6842 50.3047 54.5656 56.2406L54.5566 56.6926L54.3223 56.4359C53.8298 56.4133 53.9994 55.6986 53.5084 55.676C53.5309 55.1835 53.2621 55.6655 53.2847 55.173L52.7246 54.8937L52.1765 54.5918C51.9302 54.5813 51.8506 54.1218 51.8626 53.8756C52.1089 53.8861 52.3657 53.6518 52.6119 53.6623L52.6345 53.1698L52.3882 53.1593C52.4002 52.913 51.9077 52.2192 51.9182 51.973C51.4256 51.9505 50.379 50.9038 50.2559 50.0884C50.2679 49.8422 49.7768 49.4427 49.5306 49.4322C49.5531 48.9397 48.8728 49.0538 48.8954 48.5613C48.6491 48.5507 48.4974 48.0988 48.4974 48.0988L47.7076 47.5206C47.215 47.4981 46.8637 47.7038 46.3606 47.9276L45.2854 48.8991L44.015 47.9246L44.1352 46.8809C43.8889 46.8689 43.7703 46.7007 43.7808 46.456L43.4354 45.9034L42.6305 45.3733C42.6501 44.9513 43.0855 44.4002 43.5555 44.4212L43.8964 44.0413L43.485 43.4767L42.6906 43.6674L42.2506 44.0428L41.4532 44.2546L41.219 43.9978C41.2295 43.7515 40.9006 43.3911 40.9907 43.0487C41.0313 42.1538 41.1124 41.3204 42.0089 40.7527C42.6305 40.2287 43.0825 40.4284 43.5525 40.7993C44.5376 40.8443 43.2207 40.2632 45.2374 40.502L44.9641 42.1658L45.3605 42.6778C45.5933 42.8205 45.6834 42.6853 45.9296 42.4976L46.263 41.2873C46.3516 40.9209 46.263 40.8789 46.3711 40.6116C46.3816 40.3653 47.0348 40.583 47.0454 40.3368L47.3021 40.101C47.5484 40.1115 47.8923 40.113 47.9028 39.8668C47.9614 39.6851 48.0815 39.5319 48.3202 39.4073C48.3308 39.161 48.589 38.9252 48.5995 38.6805L49.3489 38.4672L49.3609 38.221L50.1102 38.0077L50.367 37.7735C50.379 37.5272 50.8926 37.0572 51.1493 36.8214L53.0174 37.4446C53.2381 37.1773 54.5235 36.3574 53.9184 35.925C53.9409 35.4114 53.3192 35.7838 53.4769 34.4594L53.7337 34.2236L54.2262 34.2461L55.5882 34.5284C55.4155 35.063 55.0701 35.0976 54.953 35.8439C55.1993 35.8544 55.0341 36.8019 55.0341 36.8019L55.0236 37.0482C55.3419 37.1113 55.8329 37.5242 56.1513 37.5873C56.1558 37.5047 56.3901 37.6549 56.3946 37.5738C56.5582 37.5813 57.1289 37.1248 57.2925 37.1323C57.3256 36.3995 57.3886 35.7388 56.7399 35.4429C56.7354 35.1336 57.5283 34.7672 57.5718 34.3257C57.6154 33.8857 56.9081 33.3707 56.812 32.9607C56.6423 32.2369 56.0011 31.7309 55.9906 31.2083C55.9771 30.5085 56.4276 30.2803 56.4591 29.588L56.0672 28.9093L55.4996 28.7186L55.0656 28.3297C54.8419 27.8266 54.5686 27.0097 54.0775 26.9887C54.088 26.7424 53.4078 26.9527 53.4198 26.7064C52.7756 26.2604 52.2455 26.2139 51.8296 26.5682L51.5728 26.8025L51.5503 27.295L51.2454 27.6314C50.7079 28.594 50.6193 29.5775 50.0937 30.2938L49.8474 30.2833L49.9495 31.9291L49.5966 32.2895C49.1041 32.267 49.1146 30.4965 48.8683 30.4845C48.8789 30.2383 49.2528 29.6466 49.0065 29.6361L48.1686 29.2201L47.7977 28.66C47.3051 28.6375 47.9118 26.5607 47.173 26.5277C47.1835 26.2814 47.4523 25.8009 47.4643 25.5546L48.2361 24.8489L48.2467 24.6026L48.2572 24.3563C48.7497 24.3789 49.436 22.6505 50.1748 22.6835C50.1988 22.1639 51.6494 22.1264 52.0428 22.1429C52.2996 21.9072 52.3416 21.3335 52.5879 21.344L52.6645 19.1021L51.4677 19.8499C51.2334 19.5931 51.2184 19.3709 50.9721 19.3604C50.5186 19.1336 50.0817 18.4549 50.1147 17.5839C50.1282 17.216 50.7544 16.6169 50.4406 16.3991L49.8639 16.5959C49.3339 16.8346 48.9089 17.4893 49.5396 18.3077C49.7573 18.7612 49.2678 19.1712 48.7933 18.9519L48.547 18.9414L48.3007 18.9309C48.2782 19.4234 47.4973 18.8498 47.2826 19.2192L46.1579 18.8949C46.1579 18.8949 45.4311 18.7027 44.9386 18.6801L43.9189 18.7792L43.2657 17.8122C42.7732 17.7897 42.5269 17.7807 42.5374 17.5329L42.4173 16.9337C42.4173 16.9337 41.7371 16.4036 41.7476 16.1574C41.0073 16.0117 41.2325 15.2369 40.9667 15.0582C38.956 15.2068 36.3071 14.866 35.4392 13.1691L35.4497 12.9228C35.2034 12.9123 34.0276 11.6254 33.7814 11.6134L33.5576 11.1104C32.954 11.1855 32.1716 11.3506 31.5845 11.3236C31.0694 11.7936 30.5363 12.4528 29.7975 12.4198C29.4957 12.4814 29.4476 12.9814 29.4341 13.5445L29.7555 13.6902C29.7329 14.1827 30.0093 14.5056 29.9882 14.9981L29.6819 15.2144C29.4356 15.2038 29.1233 15.1393 28.877 15.1288L28.4115 15.812L28.1652 15.8015L28.1322 16.5403L28.3785 16.5508L28.868 17.638C28.4656 18.2086 27.3093 18.4414 26.7687 18.7822C26.2867 18.9069 26.1696 19.5331 26.3828 19.8544C26.7282 20.1683 27.0585 20.5302 27.2057 20.6908L28.2208 21.7735C28.2659 21.8846 28.2719 21.9762 28.2463 22.0513C28.0136 22.1279 27.7808 22.2045 27.5496 22.2841C27.467 22.2751 27.3814 22.26 27.2913 22.239C27.2357 22.3201 27.1697 22.3847 27.0991 22.4417C26.8123 22.5424 26.5239 22.6475 26.2371 22.7541C25.7086 22.8187 25.1995 22.7661 25.1319 22.9673L25.1229 23.1805C24.8226 23.2992 24.5238 23.4208 24.2234 23.5439L15.7377 15.0582C22.8539 8.23173 32.496 4.02563 43.0915 4.02563Z" fill="#FFED00"/>
<path id="Vector_5" d="M41.3902 55.8152L41.9683 57.4145C42.1545 57.6802 41.9999 58.5422 42.6636 58.5722C42.6531 58.8185 42.6516 59.4357 42.8978 59.4462L42.5615 59.9432L42.3077 60.649C42.2972 60.8953 41.0118 62.6372 41.0013 62.8834C40.713 63.2423 40.9232 64.0097 40.7235 64.4196L40.5132 64.7064C40.267 64.9317 40.2204 65.6134 39.7774 65.8672C34.7244 65.4317 29.6143 64.1178 24.4517 61.993C23.809 60.5138 23.2459 59.0302 22.7624 57.5406C24.761 57.5406 26.6696 57.1171 28.404 56.3558C30.206 55.5644 31.8112 54.4097 33.1267 52.9876L33.9856 52.0596L33.0906 51.1646L28.7539 46.8279L27.8229 47.8475C27.1922 48.5383 26.4189 49.0999 25.5524 49.4843C24.7205 49.8522 23.797 50.0579 22.8269 50.0579C22.1842 50.0579 21.5611 49.9648 20.9709 49.7966C20.3687 45.4884 20.4138 41.1382 21.1091 36.7429C21.6587 36.5987 22.2338 36.5206 22.8269 36.5206C23.8165 36.5206 24.7535 36.7324 25.596 37.1123C26.4804 37.5117 27.2613 38.0914 27.892 38.8031L28.8215 39.8513L33.9436 34.7292L33.0756 33.7997C31.7617 32.3926 30.1639 31.2514 28.374 30.472C26.6846 29.7362 24.8316 29.3233 22.893 29.3038C23.348 27.8832 23.8646 26.4597 24.4532 25.0301C25.5719 24.5436 26.6952 24.1006 27.8199 23.6996C28.838 23.5855 29.775 23.2852 29.9537 22.9924C31.1475 22.626 32.3458 22.3106 33.5471 22.0433C33.6703 22.2611 33.8054 22.4653 34.0457 22.4758C34.0006 23.4609 34.1808 24.949 34.1358 25.9341C35.3116 27.221 35.3416 28.1595 35.253 30.1297C34.84 31.0517 34.5187 33.8462 34.7424 34.3508L34.9332 34.4829C34.9226 34.7292 34.6058 36.2203 35.262 36.4486C36.2125 37.731 35.9708 38.6154 36.0504 39.144C36.1209 39.611 36.2336 39.9128 36.6781 40.6051C36.9514 42.7419 37.2322 41.5346 37.5055 41.41C37.088 40.2297 37.4033 39.2822 37.1796 38.7791L36.8928 38.5689L36.9559 37.734L37.2997 37.749C37.2937 37.8721 37.5115 38.0688 37.579 38.2115C37.7818 38.641 38.0295 39.0479 38.0205 39.2326C38.2338 39.5164 37.7352 40.5661 38.2668 40.9024L38.2578 41.8004L38.2473 42.9687C38.8689 44.2436 40.2279 45.6446 41.5238 45.3097L42.3813 46.1972C42.3482 46.936 42.7927 47.7409 43.027 47.9977L43.2627 48.2545C43.4159 48.2605 43.3498 48.9978 44.2103 48.9858C44.4701 48.9812 44.416 49.3176 44.5076 49.3221L44.856 50.1721L44.368 50.6871L43.5826 51.0535C43.0901 50.6601 42.6035 51.4725 42.1125 51.5746C41.8707 53.5507 41.5704 52.9471 40.8181 53.5763C40.785 54.3151 41.1695 55.3092 41.3932 55.8122L41.3902 55.8152Z" fill="#FFED00"/>
<path id="Vector_6" d="M14.7316 16.0636L23.1228 24.4548C22.465 26.0976 21.8929 27.7343 21.4004 29.3666C18.0502 29.688 15.0349 31.1866 12.778 33.4436C10.3844 35.8372 8.84217 39.0837 8.65446 42.6787H3.57141C3.79816 32.3579 8.01476 22.9922 14.7316 16.0636Z" fill="#FFED00"/>
<path id="Vector_7" d="M19.2155 42.68H16.0815C16.2287 41.0597 16.948 39.6002 18.0397 38.51C18.5127 38.0369 19.0563 37.633 19.6524 37.3162C19.4062 39.1106 19.2575 40.8991 19.2155 42.68Z" fill="#FFED00"/>
<path id="Vector_8" d="M19.5233 49.1943C18.9782 48.888 18.4797 48.5096 18.0412 48.0711C17.0697 47.0995 16.3939 45.8366 16.1522 44.4281H19.208C19.2305 46.0213 19.3371 47.6101 19.5233 49.1928V49.1943Z" fill="#FFED00"/>
<path id="Vector_9" d="M3.57141 44.4305H8.67699C8.92476 47.9189 10.4459 51.0648 12.7795 53.3998C15.0049 55.6253 17.9676 57.1134 21.2622 57.4633C21.7623 59.1106 22.3509 60.7504 23.0342 62.3856L14.5559 70.8639C7.93968 63.9549 3.79666 54.6612 3.57141 44.4305Z" fill="#FFED00"/>
<path id="Vector_10" d="M43.0916 83.0843C32.4059 83.0843 22.6903 78.8046 15.5635 71.8761L24.0478 63.3918C28.9446 65.3439 33.7979 66.6023 38.6017 67.1174C38.5371 67.3441 38.4891 67.6234 38.4936 67.9628L38.1227 68.4508C38.0896 69.1896 37.8344 70.1537 37.7893 71.1388L37.8914 71.5878L38.1377 71.5983L38.2113 72.1449L38.6287 72.6509C38.7684 72.8041 39.2429 72.5563 39.5192 72.2875C39.9246 71.8956 40.0823 71.5893 40.1289 71.3925L40.255 70.8054L40.5013 70.8159L40.5238 70.3234C40.9518 70.2798 41.219 69.11 41.5599 68.9584L41.8062 68.9689L41.8287 68.4764C42.3213 68.4989 41.8047 67.7616 42.2972 67.7841C42.3062 67.5994 42.4564 67.4688 42.6786 67.3681C49.2363 67.4913 55.7024 66.1864 62.0663 63.3137L70.6227 71.8701C63.4959 78.8001 53.7788 83.0798 43.0931 83.0798L43.0916 83.0843Z" fill="#FFED00"/>
<path id="Vector_11" d="M71.6272 70.8624L62.9102 62.1454C63.9689 59.4214 64.7918 56.6959 65.3849 53.9705L70.4049 53.978C70.4274 54.1642 70.4469 54.3534 70.462 54.5486C70.51 55.1477 70.522 55.7079 70.522 56.2665V57.5849H77.4416L77.4146 56.2409C77.332 52.1084 76.7508 48.081 75.7853 44.4305H82.6102C82.3865 54.6612 78.242 63.9534 71.6272 70.8624Z" fill="#FFED00"/>
<path id="Vector_12" d="M22.7564 30.6195C26.4414 30.6195 29.769 32.1903 32.1086 34.6965L28.871 37.934C27.3874 36.2612 25.2251 35.2041 22.8209 35.2041C18.3671 35.2041 14.7346 38.8365 14.7346 43.2904C14.7346 47.7442 18.3671 51.3767 22.8209 51.3767C25.1815 51.3767 27.3108 50.3571 28.7915 48.7338L32.1536 52.096C29.8126 54.6308 26.4639 56.221 22.7564 56.221C15.7062 56.221 9.9549 50.4697 9.9549 43.4195C9.9549 36.3693 15.7062 30.618 22.7564 30.618V30.6195Z" fill="#E30613"/>
<path id="Vector_13" d="M65.9915 30.4825C60.3319 33.9994 56.1183 44.6835 55.8855 56.2672H60.1411C60.1306 55.0599 60.2628 53.8856 60.5391 52.6467L71.5086 52.6633C71.7954 53.8481 71.8419 55.0344 71.8419 56.2672H76.0961C75.8633 44.6835 71.6497 33.9994 65.9915 30.4825Z" fill="#E30613"/>
<path id="Vector_14" d="M55.7263 58.3215L55.4921 58.0647C55.3134 58.0572 55.2173 57.7554 55.0851 57.5827H61.4716L61.4596 56.2537C61.4551 55.6876 61.4821 55.144 61.5407 54.6094C61.5647 54.3932 61.5932 54.1785 61.6263 53.9637L63.9793 53.9667C63.3606 56.6427 62.5062 59.3171 61.4145 61.993C56.2879 64.3701 51.0907 65.6645 45.8305 65.9588C46.1353 65.6645 46.5017 65.3372 46.5092 65.193C46.7555 65.2035 47.2 65.1735 47.2105 64.9272C47.4568 64.9377 47.7136 64.7035 47.7241 64.4572L47.9373 63.7634C47.9373 63.4661 49.8459 62.412 49.8564 62.463C50.5952 62.4961 51.2004 62.448 51.9392 62.4825C51.9392 62.4825 52.711 61.7768 52.9573 61.7888C52.9798 61.2962 53.2036 61.7993 53.2261 61.3068C53.4723 61.3188 53.7291 61.083 53.7411 60.8367L53.9994 60.601L54.2562 60.3652C54.5025 60.3757 55.2428 59.7931 55.4891 59.8036L55.7458 59.5679C55.7563 59.3216 55.7173 58.5648 55.7278 58.3185L55.7263 58.3215Z" fill="#FFED00"/>
<path id="Vector_15" d="M43.9911 14.2091L43.6653 15.5636C44.6263 15.7558 44.6684 16.1312 44.293 16.5922C43.9746 17.1103 44.326 17.4947 45.3456 17.7455C46.8382 18.4513 47.9329 18.7201 48.1552 18.0218L47.9299 16.3925C47.6536 15.9661 47.7873 15.3639 47.9795 14.7377C48.406 14.086 47.963 13.3667 46.6505 12.5814C45.706 12.6549 44.9372 13.1355 43.9926 14.2121L43.9911 14.2091Z" fill="#312783"/>
<path id="Vector_16" d="M42.3602 15.0368L44.0901 13.5577L44.416 11.6266C44.0646 11.2511 43.5795 11.1085 42.9609 11.2001C42.6425 12.0185 42.2926 12.4119 41.707 13.0306L41.255 13.8835C41.5553 14.8025 41.9232 15.1869 42.3587 15.0368H42.3602Z" fill="#312783"/>
<path id="Vector_17" d="M66.0712 39.3903C64.8429 40.973 63.9404 43.2675 62.8983 46.508H69.2457C68.202 43.2675 67.3011 40.973 66.0712 39.3903Z" fill="#312783"/>
<path id="Vector_18" d="M67.4181 45.1904H66.4961C66.5051 44.9366 66.5141 44.6843 66.5186 44.4305H67.1448C67.2364 44.6768 67.3265 44.9291 67.4181 45.1904Z" fill="#FFED00"/>
<path id="Vector_19" d="M65.1821 43.9357C65.1776 44.3531 65.1686 44.7721 65.1521 45.1895H64.7226C64.8758 44.7511 65.0274 44.3336 65.1821 43.9357Z" fill="#FFED00"/>
</g>
<defs>
<clipPath id="clip0_290_519">
<rect width="85.2481" height="85.2481" fill="white" transform="translate(0.467529 0.931091)"/>
</clipPath>
</defs>
</svg>
